1 10 20
100 100 26
72469 15747 340
69564 95327 351
43820 84623 351
62450 78241 351
74929 134 340
80751 58581 351
6517 28958 308
61992 20704 340
83049 32556 351
80768 62600 351
50926 67928 340
86009 60656 351
58993 43393 340
37741 94813 351
90655 74285 351
54066 58990 322
28313 1190 308
90210 23301 351
65790 37072 340
77931 54557 351
52141 16040 324
67586 97998 351
12753 16515 276
41047 8785 324
53776 42539 340
75989 92903 351
11223 68152 340
50004 65455 340
2678 86382 351
86183 19746 351
206 12720 268
51286 15809 324
17293 50510 324
1888 14142 276
68462 83686 351
24710 44446 324
36848 8243 324
2512 37158 324
95151 72975 351
598 53292 340
23235 50393 324
75711 2747 340
46311 54723 340
24088 5311 282
18306 71910 340
63457 8022 340
75376 2074 340
79506 55824 351
3981 35212 311
11773 84751 351
90995 57429 351
77569 78953 338
28521 57761 340
43875 89310 351
10017 15506 276
22595 12685 279
80192 92413 333
56323 22030 340
67315 55379 335
2935 88883 351
39548 17496 324
83223 59846 351
8169 92712 351
69987 50844 340
21175 78130 351
4297 98568 351
79684 95458 333
6037 7978 262
5107 96569 351
10033 39777 324
35341 41578 324
12756 16867 276
78512 35074 351
41837 37591 306
83436 44140 351
88867 55312 351
81033 50931 351
50272 76706 340
93643 22628 351
19416 22536 274
41408 73375 340
73387 81676 351
32233 69033 340
45015 42155 288
66457 27588 340
82279 60991 351
44304 28094 324
6489 26535 282
77377 38451 351
76632 32067 340
47794 93464 351
37332 34763 324
86398 4648 351
41959 67298 340
65809 51028 340
65483 91676 351
83492 34542 351
74407 73025 294
69649 12302 340
329394 999999 525
