.................
----------------------------------------------------------------------
Ran 17 tests in 9.428s

OK
Name             Stmts   Miss Branch BrPart  Cover   Missing
------------------------------------------------------------
Collatz.py          37      0     14      0   100%
TestCollatz.py      72      0      0      0   100%
------------------------------------------------------------
TOTAL              109      0     14      0   100%
